<svg xmlns="http://www.w3.org/2000/svg" width="22" height="22" viewBox="0 0 5.821 5.821">
	<rect ry=".265" rx=".265" y="-.001" height="5.821" width="5.821" fill="#555"/>
	<path d="M3.245 4.497H1.852l.077-.379.403-.177.433-2.037-.327-.176.08-.38H3.91l-.08.38-.41.176-.432 2.037.336.177z" fill="#ddd"/>
</svg>