<svg xmlns="http://www.w3.org/2000/svg" width="22" height="22" viewBox="0 0 5.821 5.821">
	<path d="M1.72 2.346l-.172.317q-.034.064-.051.112-.016.049-.016.086 0 .066.048.097.049.03.15.03h.07l-.039.187H.794l.038-.188h.074q.048 0 .084-.01.038-.012.072-.043.035-.031.071-.085.038-.053.086-.136L2.416.657H2.9l.296 2.077q.009.055.022.102.016.046.04.08.024.033.06.052.038.02.093.02h.064l-.038.187H2.272l.038-.188h.08q.114 0 .181-.034.068-.036.068-.114 0-.029-.002-.057l-.005-.055-.054-.38zm.77-.807q-.008-.078-.017-.145L2.46 1.26l-.01-.124-.005-.124q-.026.064-.052.12l-.055.11-.065.118-.081.145-.35.625h.713zm2.238 3.753l-.128-.42h-.642l-.128.42h-.403l.622-1.77h.457l.625 1.77zm-.217-.733l-.2-.646q-.022-.074-.031-.118-.04.155-.228.764z" fill="#66a8c7"/><path d="M1.323 3.704c0 1.059 1.323.764 1.323.764" fill="none" stroke="#aaa" stroke-width=".529" stroke-linecap="square"/>
	<path d="M2.381 3.704v1.588l1.059-.794z" fill="#aaa"/>
</svg>