<svg xmlns="http://www.w3.org/2000/svg" width="22" height="22" viewBox="0 0 5.821 5.821">
	<path d="M4.172 1.04v2.038q0 .349-.158.611-.155.263-.45.403-.295.14-.697.14-.607 0-.943-.31-.336-.312-.336-.853V1.041h.665v1.927q0 .364.146.534.147.17.485.17.327 0 .474-.17.148-.172.148-.538V1.04z" fill="#aaa"/>
	<path d="M1.323 4.762h3.175" fill="none" stroke="#aaa" stroke-width=".529"/>
</svg>